B1,006CB7
B11,006CB7
B12,6CBE45
B13,FAA61A
B14,00AEEF
B15,B933AD
B16,FAA61A
B17,B933AD
B2,006CB7
B20,6CBE45
B24,EE352E
B25,6CBE45
B26,006CB7
B3,EE352E
B31,FAA61A
B35,EE352E
B36,FAA61A
B38,00AEEF
B39,6CBE45
B4,6CBE45
B41,006CB7
B42,006CB7
B43,EE352E
B44,B933AD
B45,EE352E
B46,6CBE45
B47,FAA61A
B48,FAA61A
B49,EE352E
B52,EE352E
B54,6CBE45
B57,EE352E
B6,EE352E
B60,B933AD
B61,6CBE45
B62,00AEEF
B63,006CB7
B64,6CBE45
B65,00AEEF
B67,EE352E
B68,EE352E
B69,006CB7
B7,EE352E
B70,B933AD
B74,EE352E
B8,FAA61A
B82,6CBE45
B83,EE352E
B9,EE352E
BX3,EE352E
BX4,FAA61A
BX4A,FAA61A
BX5,EE352E
BX6,EE352E
BX7,EE352E
BX8,FAA61A
BX9,FAA61A
BX1,00AEEF
BX10,006CB7
BX11,FAA61A
BX12,006CB7
BX12+,006CB7
BX13,006CB7
BX15,FAA61A
BX16,00AEEF
BX17,006CB7
BX18,6CBE45
BX19,B933AD
BX2,FAA61A
BX20,00AEEF
BX21,6CBE45
BX22,EE352E
BX24,6CBE45
BX26,FAA61A
BX27,00AEEF
BX28,00AEEF
BX29,00AEEF
BX30,EE352E
BX31,EE352E
BX32,6CBE45
BX33,6CBE45
BX34,B933AD
BX35,00AEEF
BX36,B933AD
BX38,FAA61A
BX39,FAA61A
BX40,006CB7
BX41,EE352E
BX42,EE352E
BX46,EE352E
BX55,00AEEF
M1,EE352E
M2,B933AD
M3,B933AD
M4,00AEEF
M5,EE352E
M7,00AEEF
M8,00AEEF
M9,B933AD
M10,006CB7
M100,00AEEF
M101,FAA61A
M102,FAA61A
M103,B933AD
M104,B933AD
M106,6CBE45
M11,FAA61A
M116,6CBE45
M14A,6CBE45
M14D,6CBE45
M15,006CB7
M15+,006CB7
M20,EE352E
M21,FAA61A
M22,00AEEF
M23,6CBE45
M31,B933AD
M34+,006CB7
M34A+,006CB7
M35,FAA61A
M42,EE352E
M50,6CBE45
M57,00AEEF
M60,EE352E
M66,FAA61A
M72,6CBE45
M79,EE352E
M86,FAA61A
M96,6CBE45
M98,EE352E
Q1,FAA61A
Q2,6CBE45
Q3,00AEEF
Q4,EE352E
Q5,EE352E
Q12,EE352E
Q13,EE352E
Q15,FAA61A
Q15A,FAA61A
Q16,EE352E
Q17,EE352E
Q20A,006CB7
Q20B,006CB7
Q24,00AEEF
Q26,6CBE45
Q27,EE352E
Q28,EE352E
Q30,FAA61A
Q31,FAA61A
Q32,00AEEF
Q36,FAA61A
Q42,00AEEF
Q43,EE352E
Q44,EE352E
Q46,EE352E
Q48,006CB7
Q54,B933AD
Q55,EE352E
Q56,B933AD
Q58,6CBE45
Q59,FAA61A
Q76,6CBE45
Q77,FAA61A
Q83,6CBE45
Q84,B933AD
Q85,EE352E
Q88,FAA61A
S40,B933AD
S42,00AEEF
S44,FAA61A
S46,006CB7
S48,EE352E
S51,006CB7
S52,B933AD
S53,EE352E
S54,FAA61A
S55,FAA61A
S56,6CBE45
S57,6CBE45
S59,EE352E
S61,EE352E
S62,B933AD
S66,6CBE45
S74,EE352E
S76,B933AD
S78,FAA61A
S79,B933AD
S79+,006CB7
S81,006CB7
S84,EE352E
S86,B933AD
S89,EE352E
S90,B933AD
S91,EE352E
S92,B933AD
S93,EE352E
S94,FAA61A
S96,006CB7
S98,EE352E
X1,00933C
X10B,00933C
X10,00933C
X11,00933C
X12,00933C
X14,00933C
X15,00933C
X17,00933C
X17A,00933C
X17J,00933C
X19,00933C
X2,00933C
X22,00933C
X22A,00933C
X27,00933C
X28,00933C
X3,00933C
X30,00933C
X31,00933C
X37,00933C
X38,00933C
X4,00933C
X42,00933C
X5,00933C
X63,00933C
X64,00933C
X68,00933C
X7,00933C
X8,00933C
X9,00933C
