
40.67460587997026,-73.98425908001553 198.228.201.175 2013-06-9 06:43:31
40.675907043150104,-73.98274902472343 198.228.201.175 2013-06-9 06:47:13
40.67460587999999,-73.98425908000002 198.228.201.167 2013-06-9 15:27:40
40.67460587999999,-73.98425908000002 198.228.201.167 2013-06-9 15:27:48
40.67460587999999,-73.98425908000002 198.228.201.167 2013-06-9 15:33:35
40.676167799999995,-73.98329369999999 142.255.75.132 2013-06-9 15:33:52
40.67460587999999,-73.98425908000002 198.228.201.167 2013-06-9 15:34:13
40.6761541,-73.98327919999997 142.255.75.132 2013-06-9 15:34:14
40.67460587999999,-73.98425908000002 198.228.201.167 2013-06-9 15:34:18
40.6761921,-73.98330520000002 142.255.75.132 2013-06-9 15:35:21
40.6761602,-73.9832877 142.255.75.132 2013-06-9 15:35:32
40.6761834,-73.98330720000001 142.255.75.132 2013-06-9 15:36:38
40.6761759,-73.98326250000002 142.255.75.132 2013-06-9 15:37:20
40.676188599999996,-73.9832879 142.255.75.132 2013-06-9 15:39:06
40.67460587999999,-73.98425908000002 198.228.201.167 2013-06-9 15:39:30
40.6761543,-73.98326159999999 142.255.75.132 2013-06-9 15:40:52
40.67460587999999,-73.98425908000002 198.228.201.167 2013-06-9 15:41:14
40.67460587999999,-73.98425908000002 198.228.201.167 2013-06-9 15:41:58
40.67460587999999,-73.98425908000002 198.228.201.167 2013-06-9 15:42:10
40.67460587999999,-73.98425908000002 198.228.201.167 2013-06-9 15:42:13
40.6761628,-73.98327649999999 142.255.75.132 2013-06-9 15:42:25
40.67460587999999,-73.98425908000002 198.228.201.167 2013-06-9 15:42:47
40.67460587999999,-73.98425908000002 198.228.201.167 2013-06-9 15:42:54
40.67460587999999,-73.98425908000002 198.228.201.167 2013-06-9 15:43:03
40.67460587999999,-73.98425908000002 198.228.201.167 2013-06-9 15:43:09
40.67460587999999,-73.98425908000002 198.228.201.167 2013-06-9 15:43:15
40.67460587999999,-73.98425908000002 198.228.201.167 2013-06-9 15:43:25
40.6761711,-73.98327210000002 142.255.75.132 2013-06-9 15:44:53
40.67460587999999,-73.98425908000002 198.228.201.167 2013-06-9 15:44:55
40.67460587999999,-73.98425908000002 198.228.201.167 2013-06-9 15:44:59
40.67460587999999,-73.98425908000002 198.228.201.167 2013-06-9 15:46:49
40.6761711,-73.98329869999998 142.255.75.132 2013-06-9 15:48:19
40.6761574,-73.98326709999998 142.255.75.132 2013-06-9 15:51:05
40.6761638,-73.98328040000001 142.255.75.132 2013-06-9 15:51:33
40.6761718,-73.9832816 142.255.75.132 2013-06-9 15:52:35
40.676179,-73.98328300000003 142.255.75.132 2013-06-9 15:53:18
40.67460587999999,-73.98425908000002 198.228.201.167 2013-06-9 15:53:31
40.67460587999999,-73.98425908000002 198.228.201.167 2013-06-9 15:53:34
40.67460587999999,-73.98425908000002 198.228.201.167 2013-06-9 15:53:37
40.67460587999999,-73.98425908000002 198.228.201.167 2013-06-9 15:53:42
40.6761629,-73.98326910000003 142.255.75.132 2013-06-9 15:54:14
40.676167199999995,-73.9832897 142.255.75.132 2013-06-9 15:54:28
40.676178199999995,-73.9833195 142.255.75.132 2013-06-9 15:54:37
40.67460587999999,-73.98425908000002 198.228.201.167 2013-06-9 15:54:44
40.67460587999999,-73.98425908000002 198.228.201.167 2013-06-9 15:54:48
40.67460587999999,-73.98425908000002 198.228.201.167 2013-06-9 15:54:51
40.67460587999999,-73.98425908000002 198.228.201.167 2013-06-9 15:54:55
40.67460587999999,-73.98425908000002 198.228.201.167 2013-06-9 15:54:59
40.6761585,-73.9832379 142.255.75.132 2013-06-9 15:55:08
40.676149099999996,-73.9832429 142.255.75.132 2013-06-9 15:55:26
40.6761724,-73.98326789999999 142.255.75.132 2013-06-9 15:55:53
40.67460587999999,-73.98425908000002 198.228.201.167 2013-06-9 15:55:54
40.67460587999999,-73.98425908000002 198.228.201.167 2013-06-9 15:55:59
40.6761724,-73.98326420000001 142.255.75.132 2013-06-9 15:56:11
40.6761489,-73.9832485 142.255.75.132 2013-06-9 15:57:47
40.6761805,-73.98328449999997 142.255.75.132 2013-06-9 15:58:33
40.676167,-73.98330190000001 142.255.75.132 2013-06-9 15:59:02
40.67460587999999,-73.98425908000002 198.228.201.167 2013-06-9 15:59:10
40.67460587999999,-73.98425908000002 198.228.201.167 2013-06-9 15:59:16
40.67460587999999,-73.98425908000002 198.228.201.167 2013-06-9 15:59:28
40.67460587999999,-73.98425908000002 198.228.201.167 2013-06-9 15:59:35
40.67460587999999,-73.98425908000002 198.228.201.167 2013-06-9 15:59:45
40.67460587999999,-73.98425908000002 198.228.201.167 2013-06-9 15:59:49
40.67460587999999,-73.98425908000002 198.228.201.167 2013-06-9 15:59:54
40.676164,-73.98327340000003 142.255.75.132 2013-06-9 16:00:04
40.676178799999995,-73.9832864 142.255.75.132 2013-06-9 16:00:14
40.676162399999996,-73.98327059999997 142.255.75.132 2013-06-9 16:00:40
40.6761731,-73.98330399999998 142.255.75.132 2013-06-9 16:01:45
40.67460587999999,-73.98425908000002 198.228.201.167 2013-06-9 16:02:01
40.67460587999999,-73.98425908000002 198.228.201.167 2013-06-9 16:02:06
40.67460587999999,-73.98425908000002 198.228.201.167 2013-06-9 16:02:10
40.67460587999999,-73.98425908000002 198.228.201.167 2013-06-9 16:02:13
40.67460587999999,-73.98425908000002 198.228.201.167 2013-06-9 16:02:16
40.67460587999999,-73.98425908000002 198.228.201.167 2013-06-9 16:02:20
40.676175,-73.98328600000002 142.255.75.132 2013-06-9 16:04:30
40.6761848,-73.98328090000001 142.255.75.132 2013-06-9 16:04:40
40.676175,-73.9833041 142.255.75.132 2013-06-9 16:04:50
40.67460587999999,-73.98425908000002 198.228.201.167 2013-06-9 16:06:48
40.67460587999999,-73.98425908000002 198.228.201.167 2013-06-9 16:13:55
40.676142899999995,-73.98322859999996 142.255.75.132 2013-06-9 16:27:34
40.6761784,-73.98329260000003 142.255.75.132 2013-06-9 16:29:03
40.6761613,-73.98327719999997 142.255.75.132 2013-06-9 16:36:04
40.676186099999995,-73.98331000000002 142.255.75.132 2013-06-9 16:36:30
40.676150199999995,-73.98326410000004 142.255.75.132 2013-06-9 16:38:36
40.676165999999995,-73.98327219999999 142.255.75.132 2013-06-9 16:40:41
40.6761828,-73.98330369999996 142.255.75.132 2013-06-9 16:42:50
40.6761705,-73.98326930000002 142.255.75.132 2013-06-9 16:43:52
40.67460587034573,-73.98425908395546 198.228.201.153 2013-06-9 16:44:26
40.67460587815605,-73.98425908075546 198.228.201.153 2013-06-9 16:44:31
40.674605879999994,-73.98425908000002 198.228.201.156 2013-06-9 16:58:59
40.67460587999999,-73.98425908000002 198.228.201.156 2013-06-9 16:59:05
40.67460587999999,-73.98425908000002 198.228.201.156 2013-06-9 17:00:36
40.676179999999995,-73.98328879999997 142.255.75.132 2013-06-9 17:01:01
40.676143499999995,-73.98325790000001 142.255.75.132 2013-06-9 17:02:05
40.6761534,-73.98326650000001 142.255.75.132 2013-06-9 17:02:39
40.676172799999996,-73.98326459999998 142.255.75.132 2013-06-9 17:03:04
40.67460587999999,-73.98425908000002 198.228.201.156 2013-06-9 17:03:21
40.674379224820456,-73.98270308039167 198.228.201.171 2013-06-9 17:24:25
40.6761663,-73.98327849999998 142.255.75.132 2013-06-9 17:43:38
40.674605878742355,-73.98425907136641 198.228.201.159 2013-06-9 17:43:55
40.676177,-73.98329360000002 142.255.75.132 2013-06-9 17:44:54
40.674605880018255,-73.98425908012541 198.228.201.159 2013-06-9 17:45:06
40.676164299999996,-73.98326729999997 142.255.75.132 2013-06-9 17:45:59
40.676171599999996,-73.98327189999998 142.255.75.132 2013-06-9 17:46:14
40.674605879998076,-73.98425907998683 198.228.201.159 2013-06-9 17:46:53
40.676182399999995,-73.9833329 142.255.75.132 2013-06-9 17:51:05
40.6761623,-73.98329419999999 142.255.75.132 2013-06-9 17:51:22
40.6761781,-73.98329919999998 142.255.75.132 2013-06-9 17:51:33
40.674605879999994,-73.98425908000002 198.228.201.159 2013-06-9 17:53:15
40.67460587999999,-73.98425908000002 198.228.201.159 2013-06-9 17:53:58
40.67460587999999,-73.98425908000002 198.228.201.159 2013-06-9 17:54:01
40.67460587999999,-73.98425908000002 198.228.201.159 2013-06-9 17:54:02
40.6761756,-73.98329769999998 142.255.75.132 2013-06-9 17:54:09
40.67460587999999,-73.98425908000002 198.228.201.159 2013-06-9 17:54:36
40.676187399999996,-73.98331710000002 142.255.75.132 2013-06-9 17:55:37
40.676152099999996,-73.9832472 142.255.75.132 2013-06-9 17:55:56
40.67344871387089,-73.98050327760876 198.228.201.155 2013-06-9 18:00:59
40.674463887500806,-73.98379821734818 198.228.201.155 2013-06-9 18:01:08
40.67453489240528,-73.98402867676555 198.228.201.155 2013-06-9 18:02:37
40.67460646244566,-73.98426097046189 198.228.201.155 2013-06-9 18:02:52
40.67460646244566,-73.98426097046189 198.228.201.155 2013-06-9 18:03:19
40.674606070532896,-73.98425969837547 198.228.201.155 2013-06-9 18:03:22
40.674605929431564,-73.98425924042817 198.228.201.155 2013-06-9 18:03:27
40.674605883470676,-73.98425909126007 198.228.201.155 2013-06-9 18:04:57
40.674605880396,-73.98425908128479 198.228.201.155 2013-06-9 18:04:58
40.67460588006328,-73.98425908020533 198.228.201.155 2013-06-9 18:05:00
40.674605879983055,-73.98425907994499 198.228.201.155 2013-06-9 18:05:01
40.674605879965284,-73.98425907988735 198.228.201.155 2013-06-9 18:05:02
40.67460587996,-73.98425907987024 198.228.201.155 2013-06-9 18:05:03
40.67460587996094,-73.98425907987325 198.228.201.155 2013-06-9 18:05:05
40.67460587996136,-73.98425907987462 198.228.201.155 2013-06-9 18:05:07
40.67460587994442,-73.98425907981971 198.228.201.155 2013-06-9 18:05:08
40.67460587996182,-73.9842590798761 198.228.201.155 2013-06-9 18:05:10
40.674605879967125,-73.98425907989338 198.228.201.155 2013-06-9 18:05:11
40.67460587996846,-73.9842590798977 198.228.201.155 2013-06-9 18:05:12
40.67460587997118,-73.98425907990651 198.228.201.155 2013-06-9 18:05:14
40.674605879971594,-73.98425907990782 198.228.201.155 2013-06-9 18:05:15
40.67460587997311,-73.98425907991276 198.228.201.155 2013-06-9 18:05:16
40.6746058799728,-73.9842590799118 198.228.201.155 2013-06-9 18:05:17
40.674605879973754,-73.98425907991486 198.228.201.155 2013-06-9 18:05:19
40.67460587997434,-73.98425907991674 198.228.201.155 2013-06-9 18:05:20
40.67460587997587,-73.98425907992174 198.228.201.155 2013-06-9 18:05:22
40.6746058799776,-73.98425907992731 198.228.201.155 2013-06-9 18:05:23
40.674605879978024,-73.98425907992868 198.228.201.155 2013-06-9 18:05:24
40.67460587997877,-73.98425907993112 198.228.201.155 2013-06-9 18:05:26
40.674605879980135,-73.98425907993555 198.228.201.155 2013-06-9 18:05:27
40.674605879980845,-73.98425907993789 198.228.201.155 2013-06-9 18:05:28
40.674605879981776,-73.9842590799409 198.228.201.155 2013-06-9 18:05:30
40.67460587998251,-73.98425907994329 198.228.201.155 2013-06-9 18:05:31
40.674605879982565,-73.98425907994346 198.228.201.155 2013-06-9 18:05:32
40.674605879933324,-73.98425907978367 198.228.201.155 2013-06-9 18:05:36
40.674605879999135,-73.98425907999717 198.228.201.155 2013-06-9 18:07:03
40.67460588000003,-73.98425908000013 198.228.201.155 2013-06-9 18:08:28
40.67460588000001,-73.98425908000007 198.228.201.155 2013-06-9 18:08:31
40.674605880000136,-73.98425908000047 198.228.201.155 2013-06-9 18:09:27
40.67460588,-73.98425908000002 198.228.201.155 2013-06-9 18:09:31
40.67460588,-73.98425908000002 198.228.201.155 2013-06-9 18:11:51
40.67460587999999,-73.98425908000002 198.228.201.155 2013-06-9 18:12:00
40.6761549,-73.98326559999998 142.255.75.132 2013-06-9 18:14:45
40.676173000000006,-73.983272 142.255.75.132 2013-06-9 18:16:37
40.676184,-73.98329960000001 142.255.75.132 2013-06-9 18:17:03
40.6761907,-73.98332670000002 142.255.75.132 2013-06-9 18:17:59
40.67460587999999,-73.98425908000002 198.228.201.176 2013-06-9 18:18:13
40.6761438,-73.98325339999997 142.255.75.132 2013-06-9 18:19:19
40.67460587999999,-73.98425908000002 198.228.201.176 2013-06-9 18:23:11
40.67460587999999,-73.98425908000002 198.228.201.176 2013-06-9 18:23:22
40.67634782142856,-73.9834657485714 142.255.75.132 2013-06-9 18:23:52
40.6761698,-73.98326429999997 142.255.75.132 2013-06-9 18:25:05
40.67642808302134,-73.98346688370873 142.255.75.132 2013-06-9 18:33:49
40.67460587999999,-73.98425908000002 198.228.201.176 2013-06-9 18:34:00
40.67460587999999,-73.98425908000002 198.228.201.176 2013-06-9 18:34:06
40.67460587999999,-73.98425908000002 198.228.201.176 2013-06-9 18:34:09
40.67460587999999,-73.98425908000002 198.228.201.176 2013-06-9 18:34:12
40.67460587999999,-73.98425908000002 198.228.201.176 2013-06-9 18:34:16
40.67460587999999,-73.98425908000002 198.228.201.176 2013-06-9 18:34:19
40.67460587999999,-73.98425908000002 198.228.201.176 2013-06-9 18:34:22
40.67460587999999,-73.98425908000002 198.228.201.176 2013-06-9 18:34:45
40.67641449699929,-73.98346861802037 142.255.75.132 2013-06-9 18:35:07
40.67641449699929,-73.98346861802037 142.255.75.132 2013-06-9 18:37:03
40.67641449699929,-73.98346861802037 142.255.75.132 2013-06-9 18:37:24
40.67641449699929,-73.98346861802037 142.255.75.132 2013-06-9 18:37:28
40.67641449699929,-73.98346861802037 142.255.75.132 2013-06-9 18:37:42
40.6761543,-73.98323959999999 142.255.75.132 2013-06-9 18:42:11
40.676180599999995,-73.9833026 142.255.75.132 2013-06-9 18:43:23
40.67460587999999,-73.98425908000002 198.228.201.169 2013-06-9 18:43:39
40.6761753,-73.98331289999999 142.255.75.132 2013-06-9 18:44:57
40.6761638,-73.98328090000001 142.255.75.132 2013-06-9 18:45:40
40.67460587999999,-73.98425908000002 198.228.201.169 2013-06-9 18:45:44
40.67460587999999,-73.98425908000002 198.228.201.169 2013-06-9 18:46:10
40.67460587999999,-73.98425908000002 198.228.201.169 2013-06-9 18:46:14
40.67460587999999,-73.98425908000002 198.228.201.169 2013-06-9 18:46:21
40.67460587999999,-73.98425908000002 198.228.201.169 2013-06-9 18:46:53
40.67460587999999,-73.98425908000002 198.228.201.169 2013-06-9 18:46:57
40.67460587999999,-73.98425908000002 198.228.201.169 2013-06-9 18:48:24
40.67460587999999,-73.98425908000002 198.228.201.169 2013-06-9 18:49:33
40.67460587999999,-73.98425908000002 198.228.201.169 2013-06-9 18:49:42
40.67460587999999,-73.98425908000002 198.228.201.169 2013-06-9 18:49:48
40.67460587999999,-73.98425908000002 198.228.201.169 2013-06-9 18:50:02
40.67460587999999,-73.98425908000002 198.228.201.169 2013-06-9 18:50:04
40.67460587999999,-73.98425908000002 198.228.201.169 2013-06-9 18:50:16
40.67460587999999,-73.98425908000002 198.228.201.169 2013-06-9 18:50:18
40.67460587999999,-73.98425908000002 198.228.201.169 2013-06-9 18:50:48
40.67460587999999,-73.98425908000002 198.228.201.169 2013-06-9 18:56:22
40.67460587999999,-73.98425908000002 198.228.201.169 2013-06-9 18:57:51
40.67460587999999,-73.98425908000002 198.228.201.169 2013-06-9 18:57:55
40.67460587999999,-73.98425908000002 198.228.201.169 2013-06-9 18:59:34
40.67460587999999,-73.98425908000002 198.228.201.169 2013-06-9 18:59:38
40.676150299999996,-73.98324100000002 142.255.75.132 2013-06-9 19:00:20
40.6762607,-73.98337600000002 142.255.75.132 2013-06-9 19:08:28
40.6762639,-73.9833959 142.255.75.132 2013-06-9 19:10:58
41.1700574,-73.84899789999997 96.232.95.25 2013-06-9 19:17:18
41.1700574,-73.84899789999997 96.232.95.25 2013-06-9 19:17:51
40.6761614,-73.98327460000002 142.255.75.132 2013-06-9 19:51:41
40.676177599999995,-73.98328509999999 142.255.75.132 2013-06-9 19:54:46
40.6761683,-73.9833061 142.255.75.132 2013-06-9 20:04:43
40.6762023,-73.9832968 142.255.75.132 2013-06-9 20:30:52
40.6761828,-73.98332529999999 142.255.75.132 2013-06-9 20:31:38
40.676181799999995,-73.9833041 142.255.75.132 2013-06-9 20:32:23
40.6761489,-73.98324339999999 142.255.75.132 2013-06-9 20:33:29
40.6761596,-73.9832591 142.255.75.132 2013-06-9 20:34:13
40.6761607,-73.98325019999999 142.255.75.132 2013-06-9 20:35:03
40.676169,-73.98326980000002 142.255.75.132 2013-06-9 20:36:03
40.6761797,-73.98328549999997 142.255.75.132 2013-06-9 20:36:30
40.6761653,-73.98326159999999 142.255.75.132 2013-06-9 20:36:53
40.676173600000006,-73.98329560000002 142.255.75.132 2013-06-9 20:38:44
40.676179999999995,-73.98328980000002 142.255.75.132 2013-06-9 20:39:53
40.6761781,-73.98330820000001 142.255.75.132 2013-06-9 20:40:15
40.6761919,-73.98331350000001 142.255.75.132 2013-06-9 20:40:32
40.676152900000005,-73.9832561 142.255.75.132 2013-06-9 20:40:50
40.6761718,-73.98329039999999 142.255.75.132 2013-06-9 20:42:10
40.6761542,-73.98327560000001 142.255.75.132 2013-06-9 20:45:08
40.6761797,-73.98329619999998 142.255.75.132 2013-06-9 20:45:36
40.67617,-73.98326889999998 142.255.75.132 2013-06-9 20:46:37
40.676151499999996,-73.98326150000003 142.255.75.132 2013-06-9 20:51:19
40.676179999999995,-73.98329949999999 142.255.75.132 2013-06-9 20:53:12
40.6762659,-73.98339799999997 142.255.75.132 2013-06-9 20:59:54
40.6761668,-73.98328200000003 142.255.75.132 2013-06-9 21:06:27
40.6761668,-73.98328200000003 142.255.75.132 2013-06-9 21:06:44
40.6761668,-73.98328200000003 142.255.75.132 2013-06-9 21:06:48
40.6761668,-73.98328200000003 142.255.75.132 2013-06-9 21:06:55
40.6761668,-73.98328200000003 142.255.75.132 2013-06-9 21:06:58
40.6761668,-73.98328200000003 142.255.75.132 2013-06-9 21:07:02
40.6761633,-73.98332119999998 142.255.75.132 2013-06-10 00:26:01
40.67617260000001,-73.98326959999997 142.255.75.132 2013-06-10 00:51:33
40.6761548,-73.98326800000001 142.255.75.132 2013-06-10 00:56:27
40.6761611,-73.9832988 142.255.75.132 2013-06-10 01:02:08
40.6761568,-73.9832629 142.255.75.132 2013-06-10 01:08:46
40.6761512,-73.98326229999998 142.255.75.132 2013-06-10 01:09:39
40.67615130000001,-73.98325769999997 142.255.75.132 2013-06-10 01:10:16
40.6761829,-73.98334299999999 142.255.75.132 2013-06-10 01:29:34
40.676156299999995,-73.9832763 142.255.75.132 2013-06-10 01:49:46
40.6761325,-73.98326250000002 142.255.75.132 2013-06-10 01:52:23
40.67615070000001,-73.9832513 142.255.75.132 2013-06-10 01:53:19
40.6761468,-73.98325060000002 142.255.75.132 2013-06-10 01:56:29
40.676156299999995,-73.9832533 142.255.75.132 2013-06-10 01:58:50
40.6762635,-73.98341210000001 142.255.75.132 2013-06-10 01:58:59
40.6761561,-73.9832566 142.255.75.132 2013-06-10 03:09:14
40.6761583,-73.98325649999998 142.255.75.132 2013-06-10 03:10:33
40.6761553,-73.98327159999997 142.255.75.132 2013-06-10 03:19:20
40.6761617,-73.9832591 142.255.75.132 2013-06-10 03:19:37
